[
  {
    "id": "1502000000",
    "origin": "Madrid",
    "destination": "Barcelona",
    "transport_data": {
      "transport_type": "Train",
      "sit_assignment": "45B",
      "line_number": "78A"
    }
  },
  {
    "id": "1503000000",
    "origin": "Barcelona",
    "destination": "Gerona",
    "transport_data": {
      "transport_type": "Bus",
      "line_number": "airport bus"
    }
  },
  {
    "id": "1504000000",
    "origin": "Gerona",
    "destination": "Stockholm",
    "transport_data": {
      "transport_type": "Plane",
      "line_number": "SK455",
      "gate": "45B",
      "sit_assignment": "3A",
      "baggage_counter": "344"
    }
  },
  {
    "id": "1505000000",
    "origin": "Stockholm",
    "destination": "New York JFK",
    "transport_data": {
      "transport_type": "Plane",
      "line_number": "SK22",
      "gate": "22",
      "sit_assignment": "7B"
    }
  }
]
